{
  "namespace" : "http://marklogic.com/rest-api/models/document-model-update",
  "local-name" : "cpf-config",
  "document-uri" : "/data-hub/4/rest-api/models/document-model-update.xqy",
  "modules-database" : "%%mlModulesDbName%%",
  "role" : [ "manage-internal" ]
}