{
  "namespace" : "http://marklogic.com/rest-api/lib/endpoint-util",
  "local-name" : "get-mimetypes",
  "document-uri" : "/data-hub/4/rest-api/lib/endpoint-util.xqy",
  "modules-database" : "%%mlModulesDbName%%",
  "role" : [ "rest-reader-internal" ]
}