{
  "namespace" : "http://marklogic.com/rest-api/models/document-model-common",
  "local-name" : "read-permissions",
  "document-uri" : "/data-hub/4/rest-api/models/document-model-common.xqy",
  "modules-database" : "%%mlModulesDbName%%",
  "role" : [ "rest-reader-internal" ]
}